%YAML 1.1
%TAG !u! tag:unity3d.com,2011:
--- !u!114 &11400000
MonoBehaviour:
  m_ObjectHideFlags: 0
  m_CorrespondingSourceObject: {fileID: 0}
  m_PrefabInstance: {fileID: 0}
  m_PrefabAsset: {fileID: 0}
  m_GameObject: {fileID: 0}
  m_Enabled: 1
  m_EditorHideFlags: 0
  m_Script: {fileID: 11500000, guid: 25deee16cf87b4801abecf131db5ce9c, type: 3}
  m_Name: BR-Step011.1
  m_EditorClassIdentifier: 
  descriptionCasePT: "Voc\xEA estaciona em um posto de gasolina e pega um caf\xE9
    na m\xE1quina do posto de conveni\xEAncia. Encontra um amigo motorista sentado
    em uma mesinha, se junta a ele e ambos conversam:"
  descriptionCaseEU: 'You park at a gas station and get a coffee from the convenience
    store machine. Finds a driver friend sitting at a small table, joins him and
    they both talk:'
  alternatives: 0
  nextCase: {fileID: 11400000, guid: 505534cddf38bc143903dba9611c6e12, type: 2}
  acceptCase: {fileID: 11400000, guid: fb8dc730361b441529bfa276ba9ebe4a, type: 2}
  declineCase: {fileID: 11400000, guid: 48bc638fc3b0e486d9ea47ac3088ee03, type: 2}
  BackgroundImage: {fileID: 21300000, guid: 72b07c7393be52446892f8100cd19155, type: 3}
  scoreAccept: 0
  scoreDecline: 0
