%YAML 1.1
%TAG !u! tag:unity3d.com,2011:
--- !u!114 &11400000
MonoBehaviour:
  m_ObjectHideFlags: 0
  m_CorrespondingSourceObject: {fileID: 0}
  m_PrefabInstance: {fileID: 0}
  m_PrefabAsset: {fileID: 0}
  m_GameObject: {fileID: 0}
  m_Enabled: 1
  m_EditorHideFlags: 0
  m_Script: {fileID: 11500000, guid: 25deee16cf87b4801abecf131db5ce9c, type: 3}
  m_Name: BR-Step03
  m_EditorClassIdentifier: 
  descriptionCasePT: "<b>Notifica\xE7\xE3o no celular: </b><br>Passageiro 4,8 estrelas.
    2min. 0,7km."
  descriptionCaseEU: '<b> Mobile notification: </b> <br> Passenger 4.8 stars. 2min.
    0.7km. '
  alternatives: 1
  nextCase: {fileID: 0}
  acceptCase: {fileID: 11400000, guid: 6c8d76e4551d2423593e1a302c4a93e1, type: 2}
  declineCase: {fileID: 11400000, guid: 0c68573f34e4a4dcdb815bd15708520d, type: 2}
  BackgroundImage: {fileID: 21300000, guid: 2a8c3f761cdd148f28adfdf1f7bc8e64, type: 3}
  scoreAccept: 0
  scoreDecline: 0
