%YAML 1.1
%TAG !u! tag:unity3d.com,2011:
--- !u!114 &11400000
MonoBehaviour:
  m_ObjectHideFlags: 0
  m_CorrespondingSourceObject: {fileID: 0}
  m_PrefabInstance: {fileID: 0}
  m_PrefabAsset: {fileID: 0}
  m_GameObject: {fileID: 0}
  m_Enabled: 1
  m_EditorHideFlags: 0
  m_Script: {fileID: 11500000, guid: 25deee16cf87b4801abecf131db5ce9c, type: 3}
  m_Name: BR-Step011.3
  m_EditorClassIdentifier: 
  descriptionCasePT: "[AMIGO]: O aplicativo t\xE1 tirando o couro da gente, cara!
    Mandam cada vez mais gente, pagam cada vez menos e se a gente nega ainda bloqueiam
    a gente!<br> [AMIGO]: Cara, os motora t\xE3o com um grupo pra conversar sobre
    uma organiza\xE7\xE3o de motoristas. Manda o n\xFAmero a\xED que eu te adiciono
    aqui.<br>"
  descriptionCaseEU: '[FRIEND]: The app is taking our skin off, man! They send more
    and more people, pay less and less and if we deny it, they still block us! <br>
    [FRIEND]: Dude, you are driving them with a group to talk about an organization
    of drivers. Send the number there and I''ll add you here. <br> '
  alternatives: 1
  nextCase: {fileID: 11400000, guid: a0167dea37e2d5341adf2a75f399bf3c, type: 2}
  acceptCase: {fileID: 11400000, guid: 201109a463450ee4fb2f1861b0091c56, type: 2}
  declineCase: {fileID: 11400000, guid: 1d63d1c9456a5e541b48e5e04bb2f71f, type: 2}
  BackgroundImage: {fileID: 21300000, guid: 72b07c7393be52446892f8100cd19155, type: 3}
  scoreAccept: 2
  scoreDecline: 1
