%YAML 1.1
%TAG !u! tag:unity3d.com,2011:
--- !u!114 &11400000
MonoBehaviour:
  m_ObjectHideFlags: 0
  m_CorrespondingSourceObject: {fileID: 0}
  m_PrefabInstance: {fileID: 0}
  m_PrefabAsset: {fileID: 0}
  m_GameObject: {fileID: 0}
  m_Enabled: 1
  m_EditorHideFlags: 0
  m_Script: {fileID: 11500000, guid: 25deee16cf87b4801abecf131db5ce9c, type: 3}
  m_Name: BR-Step08.2
  m_EditorClassIdentifier: 
  descriptionCasePT: "<b>Notifica\xE7\xE3o no celular:</b><br>Passageiro 4,6 estrelas.
    4min. 1,6km."
  descriptionCaseEU: '<b> Notification on mobile: </b> <br> Passenger 4.6 stars.
    4min. 1.6km. '
  alternatives: 0
  nextCase: {fileID: 11400000, guid: ea816fd78d68b8b4987ff4591e25ebae, type: 2}
  acceptCase: {fileID: 11400000, guid: fb8dc730361b441529bfa276ba9ebe4a, type: 2}
  declineCase: {fileID: 11400000, guid: 48bc638fc3b0e486d9ea47ac3088ee03, type: 2}
  BackgroundImage: {fileID: 21300000, guid: 2a8c3f761cdd148f28adfdf1f7bc8e64, type: 3}
  scoreAccept: 0
  scoreDecline: 0
