%YAML 1.1
%TAG !u! tag:unity3d.com,2011:
--- !u!114 &11400000
MonoBehaviour:
  m_ObjectHideFlags: 0
  m_CorrespondingSourceObject: {fileID: 0}
  m_PrefabInstance: {fileID: 0}
  m_PrefabAsset: {fileID: 0}
  m_GameObject: {fileID: 0}
  m_Enabled: 1
  m_EditorHideFlags: 0
  m_Script: {fileID: 11500000, guid: 25deee16cf87b4801abecf131db5ce9c, type: 3}
  m_Name: BR-Step020.2.a
  m_EditorClassIdentifier: 
  descriptionCasePT: "Opa, bora! Vou colar sim. Uni\xE3o dos trabalhadores \xE9 fundamental."
  descriptionCaseEU: 'Oops, let''s go! Yes, I will paste. Union of workers is fundamental. '
  alternatives: 0
  nextCase: {fileID: 11400000, guid: 91531b680f499544bba638bb95124ac4, type: 2}
  acceptCase: {fileID: 11400000, guid: fb8dc730361b441529bfa276ba9ebe4a, type: 2}
  declineCase: {fileID: 11400000, guid: 48bc638fc3b0e486d9ea47ac3088ee03, type: 2}
  BackgroundImage: {fileID: 21300000, guid: 4a0d2f315eda0304685e405bdabd925d, type: 3}
  scoreAccept: 0
  scoreDecline: 0
