%YAML 1.1
%TAG !u! tag:unity3d.com,2011:
--- !u!114 &11400000
MonoBehaviour:
  m_ObjectHideFlags: 0
  m_CorrespondingSourceObject: {fileID: 0}
  m_PrefabInstance: {fileID: 0}
  m_PrefabAsset: {fileID: 0}
  m_GameObject: {fileID: 0}
  m_Enabled: 1
  m_EditorHideFlags: 0
  m_Script: {fileID: 11500000, guid: 25deee16cf87b4801abecf131db5ce9c, type: 3}
  m_Name: BR-Step09
  m_EditorClassIdentifier: 
  descriptionCasePT: "<b>Caramba, t\xF4 cansado, mas se eu parar n\xE3o ganho os
    200 conto...</b> <br><br> <b>Notifica\xE7\xE3o no celular:</b><br> Passageiro
    3,9 estrelas. 1min. 0,3km."
  descriptionCaseEU: '<b> Damn, I''m tired, but if I stop I won''t earn the R $ 200.00
    </b> <br> <br> <b> Notification on cell phone: </b> <br> Passenger 3.9 stars.
    1min. 0.3km. '
  alternatives: 1
  nextCase: {fileID: 0}
  acceptCase: {fileID: 11400000, guid: e600a320f8818da43be29c9e99156c13, type: 2}
  declineCase: {fileID: 11400000, guid: b1941baa4a2444747a767c2bc9ac3a86, type: 2}
  BackgroundImage: {fileID: 21300000, guid: 9fbe65c58360d4c3da489339a9921892, type: 3}
  scoreAccept: 0
  scoreDecline: 0
