%YAML 1.1
%TAG !u! tag:unity3d.com,2011:
--- !u!114 &11400000
MonoBehaviour:
  m_ObjectHideFlags: 0
  m_CorrespondingSourceObject: {fileID: 0}
  m_PrefabInstance: {fileID: 0}
  m_PrefabAsset: {fileID: 0}
  m_GameObject: {fileID: 0}
  m_Enabled: 1
  m_EditorHideFlags: 0
  m_Script: {fileID: 11500000, guid: 25deee16cf87b4801abecf131db5ce9c, type: 3}
  m_Name: BR-Step027
  m_EditorClassIdentifier: 
  descriptionCasePT: MOTORISTAS DIZEM QUE O APP FICA COM UMA PORCENTAGEM GRANDE SOBRE
    AS CORRIDAS
  descriptionCaseEU: 'DRIVERS SAY THE APP HAS A GREAT PERCENTAGE ABOUT RACING '
  alternatives: 0
  nextCase: {fileID: 11400000, guid: a0167dea37e2d5341adf2a75f399bf3c, type: 2}
  acceptCase: {fileID: 11400000, guid: fb8dc730361b441529bfa276ba9ebe4a, type: 2}
  declineCase: {fileID: 11400000, guid: 48bc638fc3b0e486d9ea47ac3088ee03, type: 2}
  BackgroundImage: {fileID: 21300000, guid: ad28006cf46773e43b8ae85687340350, type: 3}
  scoreAccept: 0
  scoreDecline: 0
