%YAML 1.1
%TAG !u! tag:unity3d.com,2011:
--- !u!114 &11400000
MonoBehaviour:
  m_ObjectHideFlags: 0
  m_CorrespondingSourceObject: {fileID: 0}
  m_PrefabInstance: {fileID: 0}
  m_PrefabAsset: {fileID: 0}
  m_GameObject: {fileID: 0}
  m_Enabled: 1
  m_EditorHideFlags: 0
  m_Script: {fileID: 11500000, guid: 25deee16cf87b4801abecf131db5ce9c, type: 3}
  m_Name: BR-Step012
  m_EditorClassIdentifier: 
  descriptionCasePT: "<b>Notifica\xE7\xE3o no celular:</b><br> Voc\xEA segue bloqueado
    por condu\xE7\xE3o perigosa."
  descriptionCaseEU: '<b> Mobile notification: </b> <br> You are still blocked by
    dangerous driving. '
  alternatives: 0
  nextCase: {fileID: 11400000, guid: 4680f3ee59896aa428af80f3c4f79392, type: 2}
  acceptCase: {fileID: 11400000, guid: 4680f3ee59896aa428af80f3c4f79392, type: 2}
  declineCase: {fileID: 11400000, guid: 48bc638fc3b0e486d9ea47ac3088ee03, type: 2}
  BackgroundImage: {fileID: 21300000, guid: d91329f7e552d4a8dbc978f7b1da29e3, type: 3}
  scoreAccept: 0
  scoreDecline: 0
